{
    "/api/*": {
        "target": "http://154.53.63.81/",
        "secure": false,
        "logLevel": "info"
    },
	"/myotherapp/*": {
        "target": "http://localhost:4200",
        "secure": false,
        "logLevel": "info"
    }
}